module gitlab.com/cmbernard333/aproxy

require (
	github.com/gorilla/mux v1.7.3
	github.com/stretchr/objx v0.2.0 // indirect
	github.com/stretchr/testify v1.4.0
	gopkg.in/yaml.v2 v2.2.8 // indirect
)

go 1.13
